<?xml version="1.0" standalone="no"?>
<!DOCTYPE svg PUBLIC "-//W3C//DTD SVG 1.1//EN" "http://www.w3.org/Graphics/SVG/1.1/DTD/svg11.dtd" >
<svg xmlns="http://www.w3.org/2000/svg">
<metadata>Generated by IcoMoon</metadata>
<defs>
<font id="icomoon" horiz-adv-x="1024">
<font-face units-per-em="1024" ascent="960" descent="-64" />
<missing-glyph horiz-adv-x="1024" />
<glyph unicode="&#x20;" horiz-adv-x="512" d="" />
<glyph unicode="&#xe600;" glyph-name="arrow" d="M978.5 485.291h-672.631l-0.478 111.957-259.891-150.374 261.239-148.122-0.512 111.906h672.273z" />
<glyph unicode="&#xe602;" glyph-name="pinterest" d="M441.139 295.526c-26.88-140.954-59.699-276.122-156.979-346.726-30.003 213.094 44.083 373.094 78.49 542.976-58.675 98.816 7.066 297.574 130.867 248.576 152.32-60.262-131.891-367.258 58.88-405.606 199.219-40.038 280.525 345.6 157.030 470.989-178.483 181.146-519.578 4.198-477.594-255.027 10.189-63.386 75.674-82.637 26.163-170.086-114.227 25.293-148.326 115.405-143.923 235.52 7.066 196.557 176.64 334.182 346.726 353.229 215.142 24.115 417.024-78.95 444.826-281.293 31.386-228.352-97.024-475.699-327.117-457.882-62.31 4.762-88.474 35.635-137.37 65.331z" />
<glyph unicode="&#xe606;" glyph-name="twitter" d="M1021.696 751.68c-17.216-9.216-68.672-27.52-116.672-32 30.72 16.064 76.352 68.48 87.616 110.272-29.632-18.304-97.536-44.864-131.072-44.864 0 0 0-0.064 0-0.128-38.4 38.656-92.288 62.72-152.064 62.72-116.096 0-210.304-90.88-210.304-202.944 0-15.552 1.856-30.72 5.312-45.312v0c-157.504 4.032-329.856 80.192-433.536 210.624-63.744-106.56-8.64-225.024 63.744-268.16-24.768-1.792-70.4 2.816-91.84 22.976-1.408-70.72 33.792-164.352 162.176-198.4-24.704-12.8-68.48-9.216-87.552-6.464 6.656-59.712 93.312-137.664 188.032-137.664-33.728-37.76-160.704-106.048-303.232-84.224 96.832-56.832 209.536-89.792 329.024-89.792 339.264 0 602.752 265.408 588.48 592.768 0 0.384 0 0.768-0.064 1.152 0.064 0.896 0.064 1.664 0.064 2.56 0 1.024-0.064 1.984-0.128 2.944 30.912 20.352 72.384 56.384 102.016 103.936z" />
<glyph unicode="&#xe609;" glyph-name="tumblr" d="M798.72 41.165c-39.731-18.944-75.776-32.307-107.981-39.936-32.256-7.578-67.174-11.469-104.602-11.469-42.547 0-80.128 5.478-112.896 16.333-32.666 10.906-60.518 26.419-83.661 46.438-23.091 20.224-39.117 41.574-48.026 64.256-8.96 22.682-13.414 55.552-13.414 98.611v330.445h-102.861v133.325c36.557 12.032 67.942 29.184 93.952 51.661 26.112 22.426 47.002 49.408 62.822 80.896 15.77 31.488 26.573 71.475 32.563 120.115h132.352v-238.131h220.928v-147.866h-220.928v-241.613c0-54.579 2.867-89.651 8.653-105.216 5.632-15.462 16.282-27.853 31.795-37.12 20.685-12.493 44.186-18.739 70.707-18.739 47.155 0 94.003 15.514 140.595 46.49v-148.48z" />
<glyph unicode="&#xe60e;" glyph-name="mail" d="M511.872 465.376l512.128 241.248v125.376h-1024v-124.992zM512.128 323.872l-512.128 241.888v-501.76h1024v500.992z" />
<glyph unicode="&#xe613;" glyph-name="facebook" d="M631.040 800.192h98.816v159.936h-121.024v-0.704c-189.44-6.656-228.352-112.32-231.68-223.36h-0.384v-128.384h-96.768v-159.936h96.768v-511.936h193.408v512h145.088l28.736 159.936h-173.824v115.904c0 37.312 25.088 76.544 60.864 76.544z" />
<glyph unicode="&#xe800;" glyph-name="edit" d="M386.361 121.698c0 0-103.162-1.621-100.511 0 1.57 0.982 0 100.511 0 100.511l552.812 552.813 100.511-100.511-552.812-552.813zM84.827 775.022h552.812v-50.255h-552.812v50.255zM486.872 574h-402.045v50.255h402.045v-50.255zM336.106 423.232h-251.279v50.256h251.279v-50.256z" />
<glyph unicode="&#xe801;" glyph-name="link" d="M841.071 41.5h-735.571v813h309.715v-77.429h-232.286v-658.143h658.143v232.286h77.428v-309.714h-77.429zM385.951 247.17l-49.187 59.81 389.675 391.415-155.836 156.105h347.897v-348.429l-137.619 137.806-394.93-396.707z" />
<glyph unicode="&#xe802;" glyph-name="quote" d="M141.384 170.041v45.246c72.537 40.936 120.127 78.107 142.753 111.506s33.934 72 33.934 115.818c0 20.1-3.598 35.182-10.771 45.25-7.909 10.050-16.53 15.082-25.859 15.082-7.185 0-18.68-2.876-34.475-8.619-15.806-5.756-31.613-8.619-47.402-8.619-30.164 0-56.023 10.774-77.572 32.322-21.548 21.546-32.32 47.755-32.32 78.647 0 34.475 13.822 64.642 41.478 90.499 27.644 25.856 61.224 38.786 100.734 38.786 47.408 0 90.316-20.471 128.749-61.412 38.416-40.938 57.637-92.651 57.637-155.138 0-75.417-24.24-144.37-72.725-206.856-48.482-62.491-116.542-106.658-204.161-132.512zM655.289 170.041v45.246c62.49 32.32 107.554 66.613 135.209 102.889 27.645 36.26 41.478 75.582 41.478 117.973 0 25.132-3.604 42.723-10.771 52.79-7.19 9.326-15.082 14.004-23.703 14.004-9.341 0-21.92-2.876-37.709-8.619-16.53-5.756-30.889-8.619-43.091-8.619-29.463 0-55.134 11.127-77.036 33.397-21.913 22.255-32.855 48.836-32.855 79.727 0 34.475 13.28 64.272 39.857 89.421 26.566 25.132 59.257 37.708 98.043 37.708 48.833 0 92.654-21.010 131.44-63.026 38.786-42.019 58.179-93.563 58.179-154.602 0-71.83-23.892-138.812-71.647-200.927-47.774-62.133-116.895-107.923-207.394-137.362z" />
<glyph unicode="&#xe803;" glyph-name="search" d="M642.502 388.617c28.020 40.425 45.796 88.715 49.278 141.368 10.318 155.051-107.072 289.103-262.060 299.329-154.994 10.317-288.984-107.040-299.299-262.029-10.255-154.99 107.072-289.043 262.062-299.299 56.997-3.77 111.137 9.709 157.341 35.942l260.018-237.873 84.361 92.298-251.701 230.264zM411.104 391.17c-86.977 0-157.483 70.508-157.483 157.483s70.507 157.483 157.483 157.483c86.976 0 157.483-70.508 157.483-157.483s-70.507-157.483-157.483-157.483z" />
<glyph unicode="&#xe804;" glyph-name="autor" d="M309.573 851.655h-143.562v-695.583h234.264l111.725-111.726 111.726 111.726h234.264v695.583h-548.417zM512 725.513c57.666 0 104.518-46.853 104.518-104.518s-46.852-102.716-104.518-102.716c-57.665 0-104.517 45.051-104.517 102.716s46.853 104.518 104.517 104.518zM742.66 314.651h-461.32v34.238c0 77.487 153.173 118.935 230.66 118.935s230.66-41.447 230.66-118.935v-34.238z" />
<glyph unicode="&#xe90a;" glyph-name="grid" d="M256 480h224v224h-224v-224zM544 704v-224h224v224h-224zM544 192h224v224h-224v-224zM256 192h224v224h-224v-224z" />
<glyph unicode="&#xe90b;" glyph-name="grid2" d="M256 576h128v128h-128v-128zM448 576h128v128h-128v-128zM640 704v-128h128v128h-128zM256 384h128v128h-128v-128zM448 384h128v128h-128v-128zM640 384h128v128h-128v-128zM256 192h128v128h-128v-128zM448 192h128v128h-128v-128zM640 192h128v128h-128v-128z" />
<glyph unicode="&#xe90c;" glyph-name="minimize" d="M911.541 808.403l-40.958 40.958-158.616-158.615-89.779 89.779-112.008-332.525 332.529 112.005-89.784 89.784zM149.247 46.11l-40.958 40.958 158.615 158.617-89.779 89.779 332.524 112.007-112.004-332.529-89.784 89.785z" />
<glyph unicode="&#xe90d;" glyph-name="resize" d="M779.905 497.201l112.003 332.528-332.524-112.007 89.78-89.78-318.926-318.925-89.78 89.779-112.007-332.525 332.528 112.005-89.784 89.784 318.927 318.923z" />
<glyph unicode="&#xe90e;" glyph-name="cart" d="M738.266 71.104h-542.83v572.828h122.196c7.852 101.095 91.277 180.965 194.461 180.965 102.993 0 186.666-79.87 194.518-180.965h121.954v-572.828h-90.299zM512.093 734.478c-53.125 0-96.682-39.384-104.040-90.546h208.017c-7.362 51.162-50.857 90.546-103.977 90.546zM738.266 553.513h-452.289v-391.988h452.289v391.988z" />
</font></defs></svg>